-7.623916119337081909e-02
6.246633082628250122e-02
6.757303327322006226e-02
-4.349439218640327454e-02
-2.831644378602504730e-02
-1.384125649929046631e-01
-2.133673802018165588e-02
-1.141836941242218018e-01
2.126571834087371826e-01
-1.126543581485748291e-01
2.195028364658355713e-01
-2.171015739440917969e-02
-1.868453621864318848e-01
-1.034502685070037842e-01
1.528560463339090347e-02
2.137534618377685547e-01
-2.067045867443084717e-01
-1.520774364471435547e-01
-6.665965169668197632e-02
4.714806005358695984e-02
8.807048201560974121e-02
-4.537637904286384583e-02
7.100822776556015015e-02
1.008687317371368408e-01
-1.124396920204162598e-01
-4.249606728553771973e-01
-1.199517101049423218e-01
-6.752295047044754028e-02
-3.572622686624526978e-02
1.155188214033842087e-02
-6.815955042839050293e-02
8.276653289794921875e-02
-1.884662210941314697e-01
-7.813972234725952148e-02
4.434203356504440308e-02
1.697731167078018188e-01
-1.167846098542213440e-02
-1.043385937809944153e-01
1.469162702560424805e-01
-2.716947346925735474e-05
-3.049956560134887695e-01
3.806015849113464355e-02
5.163809284567832947e-02
2.401746660470962524e-01
1.649214774370193481e-01
-1.881469623185694218e-03
5.953573435544967651e-02
-1.281161010265350342e-01
1.395112574100494385e-01
-1.898344904184341431e-01
-2.407306991517543793e-02
1.010520830750465393e-01
9.062580019235610962e-02
4.421282559633255005e-02
5.771386250853538513e-02
-1.137148141860961914e-01
6.082618236541748047e-02
1.105006262660026550e-01
-1.926344633102416992e-01
-6.303653120994567871e-02
5.896759405732154846e-02
-1.130705922842025757e-01
-3.977859392762184143e-02
-1.398244500160217285e-01
2.075588256120681763e-01
1.148102954030036926e-01
-1.392875909805297852e-01
-1.417902559041976929e-01
1.050230115652084351e-01
-1.619343459606170654e-01
-3.786172717809677124e-02
6.872730702161788940e-02
-1.556324958801269531e-01
-2.024954259395599365e-01
-3.359498977661132812e-01
-2.068896964192390442e-02
3.841215670108795166e-01
1.109822243452072144e-01
-1.713970452547073364e-01
5.741005763411521912e-02
-5.859829112887382507e-02
2.835368365049362183e-02
6.613706052303314209e-02
2.064424604177474976e-01
7.061082869768142700e-03
1.341416239738464355e-01
-1.253578066825866699e-01
2.269141003489494324e-02
1.886869072914123535e-01
-7.616944611072540283e-02
2.718519233167171478e-02
2.191118001937866211e-01
1.775044016540050507e-03
1.208800524473190308e-01
-1.178849115967750549e-02
-1.701687090098857880e-02
-8.381190896034240723e-02
4.998374730348587036e-02
-1.908892095088958740e-01
2.370592765510082245e-02
-9.449970908463001251e-03
2.105688489973545074e-02
-1.800790242850780487e-02
3.686168789863586426e-02
-1.474379152059555054e-01
4.734844714403152466e-02
3.018388338387012482e-02
-6.183011922985315323e-03
3.607563674449920654e-02
2.205744199454784393e-02
-8.709377795457839966e-02
-1.463941931724548340e-01
5.602866783738136292e-02
-2.540951967239379883e-01
1.343402117490768433e-01
2.256213575601577759e-01
4.635052382946014404e-02
1.215215399861335754e-01
5.517908930778503418e-02
7.525561004877090454e-02
-4.771827906370162964e-02
-3.740627318620681763e-02
-2.057805657386779785e-01
3.996905311942100525e-02
1.177721172571182251e-01
-1.116430107504129410e-02
3.938467055559158325e-02
-4.541924595832824707e-02
