-1.220911294221878052e-01
6.794219464063644409e-02
1.375298798084259033e-01
-1.041012182831764221e-01
-3.268262371420860291e-02
-8.040192723274230957e-02
-8.575242757797241211e-02
-1.268529295921325684e-01
1.841901540756225586e-01
-2.021791785955429077e-01
2.319974601268768311e-01
-2.676935121417045593e-02
-2.552511096000671387e-01
-8.554454147815704346e-02
2.371517010033130646e-03
2.441070973873138428e-01
-2.455249428749084473e-01
-1.313432604074478149e-01
-4.239046014845371246e-03
7.690422236919403076e-03
6.838242709636688232e-02
2.615157328546047211e-02
5.106879025697708130e-02
5.257963389158248901e-02
-1.397648155689239502e-01
-4.318904578685760498e-01
-1.516441553831100464e-01
-2.755631506443023682e-02
-7.393697649240493774e-02
-8.523370488546788692e-04
-6.502988934516906738e-02
2.404824458062648773e-02
-1.696545630693435669e-01
-3.378365188837051392e-03
1.296061091125011444e-03
1.498009711503982544e-01
1.422236487269401550e-02
-1.409549266099929810e-01
1.460112482309341431e-01
-3.263986110687255859e-02
-2.954272627830505371e-01
-1.365778502076864243e-02
9.605475515127182007e-02
1.983125507831573486e-01
1.943994611501693726e-01
-1.665841555222868919e-03
1.407252997159957886e-02
-6.695211678743362427e-02
1.257590204477310181e-01
-2.021249681711196899e-01
2.279059588909149170e-02
7.304412871599197388e-02
4.888882115483283997e-02
8.268057554960250854e-02
5.077603459358215332e-02
-1.337231546640396118e-01
9.821556508541107178e-03
1.114520877599716187e-01
-1.257104724645614624e-01
-1.116525828838348389e-01
5.480183288455009460e-02
-1.606369167566299438e-01
2.932357788085937500e-02
-9.596834331750869751e-02
2.498129308223724365e-01
1.020976230502128601e-01
-1.795120686292648315e-01
-1.412165015935897827e-01
1.321273297071456909e-01
-1.507373899221420288e-01
-5.869119986891746521e-02
4.614729434251785278e-03
-1.608544737100601196e-01
-1.360573619604110718e-01
-3.897237777709960938e-01
1.047076284885406494e-02
2.996864914894104004e-01
1.039710491895675659e-01
-1.383904665708541870e-01
6.878229975700378418e-02
-4.306055232882499695e-02
2.478952333331108093e-02
5.773242563009262085e-02
2.345872074365615845e-01
6.186403706669807434e-02
9.686005115509033203e-02
-8.488281071186065674e-02
2.579812705516815186e-02
2.011002898216247559e-01
-6.328681856393814087e-02
-6.585706956684589386e-03
2.412309646606445312e-01
-2.443287521600723267e-02
1.246134117245674133e-01
5.055977497249841690e-03
5.340879783034324646e-02
-8.664679527282714844e-02
1.800464466214179993e-02
-1.333872973918914795e-01
1.052453368902206421e-01
1.067985873669385910e-02
3.312946856021881104e-02
-1.926220394670963287e-02
1.226634979248046875e-01
-1.424156129360198975e-01
1.087897419929504395e-01
1.720416732132434845e-02
2.022381871938705444e-03
3.284542262554168701e-02
3.070298954844474792e-02
-8.252961933612823486e-02
-1.228417158126831055e-01
5.067169666290283203e-02
-2.728683054447174072e-01
1.548095345497131348e-01
2.009431719779968262e-01
1.691312715411186218e-02
1.757806688547134399e-01
6.731607019901275635e-02
9.814897179603576660e-02
-4.146695509552955627e-02
-3.455198556184768677e-02
-2.074354439973831177e-01
-3.195355460047721863e-02
1.009646207094192505e-01
-1.346630975604057312e-02
9.697389602661132812e-02
4.061448574066162109e-02
