-7.100348919630050659e-02
8.168286643922328949e-03
5.508735030889511108e-02
-4.945342615246772766e-02
-1.897479407489299774e-02
-1.088808104395866394e-01
5.566775798797607422e-04
-1.365703642368316650e-01
1.961419135332107544e-01
-1.424409896135330200e-01
2.232115268707275391e-01
-1.919396966695785522e-02
-1.647736430168151855e-01
-1.194356381893157959e-01
1.429884601384401321e-02
1.955691874027252197e-01
-1.774372309446334839e-01
-1.575429886579513550e-01
-3.796005621552467346e-02
1.254446711391210556e-02
8.718226104974746704e-02
-7.860656827688217163e-02
5.786486342549324036e-02
1.413697600364685059e-01
-1.014251410961151123e-01
-3.805444538593292236e-01
-1.446895003318786621e-01
-4.525151103734970093e-02
-7.271525263786315918e-02
1.108168624341487885e-02
-4.373665153980255127e-02
9.040975570678710938e-02
-1.964422166347503662e-01
-2.224087715148925781e-02
1.274725515395402908e-02
1.203290522098541260e-01
-1.117581268772482872e-03
-9.094268083572387695e-02
1.652369797229766846e-01
3.450635075569152832e-02
-2.726348638534545898e-01
2.683304995298385620e-02
5.473662912845611572e-02
2.332830727100372314e-01
1.382280290126800537e-01
-1.135431136935949326e-02
1.049222890287637711e-02
-9.014064073562622070e-02
1.345355212688446045e-01
-2.010188996791839600e-01
-2.221759408712387085e-03
1.298695653676986694e-01
9.277853369712829590e-02
2.153349574655294418e-03
3.241885453462600708e-02
-8.142343163490295410e-02
4.858156293630599976e-02
1.045749634504318237e-01
-2.031466662883758545e-01
-1.437601447105407715e-02
1.362039055675268173e-02
-1.537253856658935547e-01
-9.594314545392990112e-02
-1.256680637598037720e-01
1.934817731380462646e-01
2.059393227100372314e-01
-1.273470818996429443e-01
-2.044791728258132935e-01
1.071618050336837769e-01
-1.680501252412796021e-01
-7.049320638179779053e-02
6.872826814651489258e-02
-1.610276997089385986e-01
-2.066377550363540649e-01
-3.075960874557495117e-01
3.740314394235610962e-03
3.734605908393859863e-01
9.611437469720840454e-02
-2.027566581964492798e-01
6.885325908660888672e-02
-7.158838957548141479e-02
1.715192198753356934e-02
8.788599818944931030e-02
2.149830013513565063e-01
2.187564224004745483e-02
9.648393094539642334e-02
-1.332677304744720459e-01
-1.234372146427631378e-03
1.614695787429809570e-01
-6.886437535285949707e-02
-7.562749087810516357e-03
2.491898387670516968e-01
-1.378121506422758102e-02
9.810290485620498657e-02
-7.358270231634378433e-03
-1.897540315985679626e-02
-7.905941456556320190e-02
6.314177811145782471e-02
-1.954126060009002686e-01
-2.310549840331077576e-02
1.533376611769199371e-02
4.274724796414375305e-02
-1.754253543913364410e-02
2.746932767331600189e-02
-1.617375761270523071e-01
5.949583277106285095e-02
1.768411137163639069e-02
-2.458740770816802979e-02
5.688491463661193848e-02
1.309611182659864426e-02
-1.218243613839149475e-01
-1.462128460407257080e-01
3.507452830672264099e-02
-2.611634135246276855e-01
1.314265131950378418e-01
1.823451519012451172e-01
5.422380194067955017e-02
1.139929667115211487e-01
6.920984387397766113e-02
9.291574358940124512e-02
-1.854415610432624817e-02
-4.458007216453552246e-02
-1.841356754302978516e-01
4.984519258141517639e-02
1.205285266041755676e-01
-1.341434475034475327e-02
1.467588171362876892e-02
-5.683527886867523193e-02
