-9.611912816762924194e-02
7.929894328117370605e-02
3.444692865014076233e-02
2.150654792785644531e-02
1.135628484189510345e-02
-2.523009106516838074e-02
-2.338493987917900085e-02
-1.852062493562698364e-01
1.205109879374504089e-01
-8.877584338188171387e-02
2.407937496900558472e-01
-7.833765447139739990e-02
-2.256412953138351440e-01
-2.048360407352447510e-01
5.255042016506195068e-02
1.194658726453781128e-01
-1.889338344335556030e-01
-1.715376079082489014e-01
-6.465978920459747314e-02
-1.666409336030483246e-02
5.014554783701896667e-02
-4.173920676112174988e-02
7.823833823204040527e-02
-3.666158765554428101e-02
-1.514466404914855957e-01
-3.646841943264007568e-01
-1.272307038307189941e-01
-1.338614672422409058e-01
1.925788819789886475e-02
2.481384016573429108e-02
-6.644989550113677979e-02
3.206448629498481750e-02
-2.173523008823394775e-01
-5.952024459838867188e-02
4.289600625634193420e-02
1.449987441301345825e-01
1.228879205882549286e-02
-1.686236262321472168e-02
1.830566227436065674e-01
-7.462976127862930298e-02
-1.332512348890304565e-01
-1.539714448153972626e-02
6.647275388240814209e-02
1.800823509693145752e-01
1.233776360750198364e-01
7.100024819374084473e-02
3.950297832489013672e-04
-7.165696471929550171e-02
1.263074576854705811e-01
-1.741559356451034546e-01
6.787241995334625244e-02
1.306756436824798584e-01
1.063392236828804016e-01
5.778270959854125977e-02
1.161887943744659424e-01
-1.298202872276306152e-01
1.265090517699718475e-02
8.629430085420608521e-02
-1.585067808628082275e-01
9.363649412989616394e-03
7.693266496062278748e-03
-8.590809255838394165e-02
-8.300587534904479980e-02
-9.618631750345230103e-02
2.463995665311813354e-01
1.290061622858047485e-01
-8.453246951103210449e-02
-1.579864025115966797e-01
1.213816925883293152e-01
-1.176928058266639709e-01
-4.068294540047645569e-02
7.305895537137985229e-02
-1.317702829837799072e-01
-1.386124938726425171e-01
-3.216405212879180908e-01
1.303690019994974136e-02
3.499450385570526123e-01
6.050069630146026611e-02
-2.278787046670913696e-01
3.907695412635803223e-02
-1.048896089196205139e-02
-3.140975162386894226e-02
1.099891066551208496e-01
9.339662641286849976e-02
-2.956506796181201935e-02
1.055852398276329041e-01
-1.661096364259719849e-01
-1.920815929770469666e-02
1.902262568473815918e-01
-9.481681883335113525e-02
-1.506540086120367050e-02
1.749796420335769653e-01
-6.045126542448997498e-02
9.579781442880630493e-02
5.590590462088584900e-02
-3.148045763373374939e-02
-6.773499399423599243e-02
-4.494858533143997192e-02
-1.688634008169174194e-01
-5.050367116928100586e-02
9.609226137399673462e-02
-2.158366329967975616e-02
-5.706353485584259033e-02
5.475479364395141602e-02
-7.927156984806060791e-02
1.454028394073247910e-02
-1.485165394842624664e-02
-2.273891866207122803e-02
-2.430628240108489990e-02
-7.767873257398605347e-02
-7.901228964328765869e-02
-6.491906195878982544e-02
1.063800603151321411e-01
-2.710198163986206055e-01
1.784469932317733765e-01
1.207980960607528687e-01
-7.141727954149246216e-02
1.325091719627380371e-01
4.719058424234390259e-02
1.017447561025619507e-01
-6.772662699222564697e-02
3.051935136318206787e-02
-1.809976845979690552e-01
-8.586407452821731567e-02
8.912737667560577393e-02
3.233752772212028503e-02
4.717022925615310669e-02
-2.158687449991703033e-02
