-6.438956409692764282e-02
9.895449876785278320e-02
4.613354429602622986e-02
2.066644094884395599e-02
5.311387404799461365e-02
-1.513880491256713867e-02
1.053732633590698242e-02
-1.544500589370727539e-01
9.874513745307922363e-02
-9.570267796516418457e-02
2.643639147281646729e-01
-8.588631451129913330e-02
-2.398800998926162720e-01
-2.421352863311767578e-01
1.086010783910751343e-01
1.177098453044891357e-01
-1.529185622930526733e-01
-1.864279061555862427e-01
-8.996429294347763062e-02
-8.056466467678546906e-03
3.603665158152580261e-02
-7.914791256189346313e-02
6.635715067386627197e-02
-3.423187881708145142e-02
-1.172124966979026794e-01
-3.921003937721252441e-01
-9.126279503107070923e-02
-1.316664218902587891e-01
6.668564863502979279e-03
-2.192488126456737518e-02
-6.688883900642395020e-02
1.257921662181615829e-02
-2.334888875484466553e-01
-5.471566319465637207e-02
-1.783265173435211182e-02
1.028440743684768677e-01
-1.491816947236657143e-03
-2.913658693432807922e-02
2.066936641931533813e-01
-5.476048216223716736e-02
-1.414659023284912109e-01
8.444773964583873749e-03
3.403831645846366882e-02
1.790501177310943604e-01
1.327453702688217163e-01
2.641727030277252197e-02
-1.261793076992034912e-04
-1.987844333052635193e-02
7.784468680620193481e-02
-1.963255107402801514e-01
5.786801874637603760e-02
1.242953836917877197e-01
9.358737617731094360e-02
7.396695017814636230e-02
1.139751151204109192e-01
-1.353473067283630371e-01
1.996895298361778259e-04
5.669207125902175903e-02
-1.571322977542877197e-01
3.137980401515960693e-02
-1.461025886237621307e-02
-8.371538668870925903e-02
-6.541132926940917969e-02
-7.455667108297348022e-02
2.779519855976104736e-01
1.179586350917816162e-01
-9.057699888944625854e-02
-1.288619786500930786e-01
1.136823892593383789e-01
-9.308362007141113281e-02
-1.940881647169589996e-02
6.724908947944641113e-02
-1.268742531538009644e-01
-1.389624327421188354e-01
-3.071317672729492188e-01
6.576360017061233521e-02
3.154776990413665771e-01
7.016312330961227417e-02
-2.562219202518463135e-01
2.474603988230228424e-02
-6.530766189098358154e-02
-3.859920799732208252e-02
1.143669486045837402e-01
7.926378399133682251e-02
-6.508771330118179321e-04
9.269449114799499512e-02
-1.563657820224761963e-01
-1.236197073012590408e-02
1.690246313810348511e-01
-5.094863474369049072e-02
-4.595338925719261169e-02
2.089238315820693970e-01
-7.396064698696136475e-02
8.992967754602432251e-02
5.329909548163414001e-02
-3.932525590062141418e-02
-3.477953001856803894e-02
-5.027100816369056702e-02
-1.675765216350555420e-01
-3.135781735181808472e-02
8.098546415567398071e-02
-7.617595791816711426e-02
-7.353579998016357422e-02
6.371857225894927979e-02
-9.499572217464447021e-02
2.588531933724880219e-03
3.400824498385190964e-03
5.349657498300075531e-03
-7.401145994663238525e-03
-1.618410274386405945e-02
-8.713034540414810181e-02
-6.635593622922897339e-02
8.197911083698272705e-02
-2.987544834613800049e-01
2.026681154966354370e-01
1.507107019424438477e-01
-4.521302878856658936e-02
1.016057878732681274e-01
5.527452751994132996e-02
8.162204176187515259e-02
-4.691806063055992126e-02
1.016776915639638901e-02
-1.860889643430709839e-01
-6.572381407022476196e-02
7.310267537832260132e-02
7.040438801050186157e-02
3.792953491210937500e-02
1.628943905234336853e-02
