-6.715579330921173096e-02
8.896423876285552979e-02
9.941470623016357422e-02
-6.094262003898620605e-02
-1.643187850713729858e-01
9.518114849925041199e-03
-8.269684016704559326e-02
-1.223206892609596252e-01
1.783200055360794067e-01
-1.766465902328491211e-01
2.210203260183334351e-01
-3.353028744459152222e-02
-1.669096797704696655e-01
-8.038071542978286743e-02
4.706535954028367996e-03
1.770792752504348755e-01
-1.871335655450820923e-01
-1.898913681507110596e-01
-4.794319719076156616e-02
-3.703048452734947205e-02
5.033068358898162842e-02
4.604284837841987610e-02
2.291406691074371338e-02
-7.748219184577465057e-03
-1.733736097812652588e-01
-3.928052783012390137e-01
-3.986030817031860352e-02
-4.119828715920448303e-02
8.391091972589492798e-02
-1.642854139208793640e-02
-9.718202054500579834e-02
3.849136875942349434e-03
-2.545840442180633545e-01
-5.563910305500030518e-02
1.097203604876995087e-02
1.433297395706176758e-01
-4.305296018719673157e-02
-8.318330347537994385e-02
1.272630393505096436e-01
-1.343821827322244644e-02
-3.255500197410583496e-01
1.504732947796583176e-02
3.749140352010726929e-02
1.878378540277481079e-01
1.889498382806777954e-01
6.268123164772987366e-03
1.502273231744766235e-02
-1.642238050699234009e-01
1.220834776759147644e-01
-2.117349505424499512e-01
5.303495004773139954e-02
1.491200327873229980e-01
-1.631348393857479095e-02
1.958526857197284698e-02
5.117046087980270386e-02
-1.388591527938842773e-01
-3.426666557788848877e-02
1.947460174560546875e-01
-1.326535195112228394e-01
-2.699516946449875832e-03
9.038385003805160522e-02
-3.169564157724380493e-02
2.005887217819690704e-03
-1.326590329408645630e-01
2.106354385614395142e-01
8.636958152055740356e-02
-8.361938595771789551e-02
-1.858797967433929443e-01
1.528716534376144409e-01
-1.179628372192382812e-01
-5.659908056259155273e-02
1.094622537493705750e-01
-1.036989241838455200e-01
-1.848048418760299683e-01
-3.129862844944000244e-01
5.011970177292823792e-03
4.187579154968261719e-01
8.520838618278503418e-02
-1.697504371404647827e-01
2.701085992157459259e-03
-3.413838893175125122e-02
-5.390704143792390823e-03
1.776702105998992920e-01
1.336341053247451782e-01
5.204163491725921631e-02
2.272376418113708496e-02
-1.100937873125076294e-01
3.408017382025718689e-02
2.665621936321258545e-01
-6.220854446291923523e-02
1.868705451488494873e-02
2.076236754655838013e-01
-4.526302218437194824e-04
5.299589037895202637e-02
1.012209430336952209e-02
9.555909782648086548e-02
-1.476867944002151489e-01
6.194368377327919006e-02
-2.117018401622772217e-01
-3.920629620552062988e-02
3.734944015741348267e-02
1.762656122446060181e-02
-2.925325557589530945e-02
1.500192731618881226e-01
-1.248733252286911011e-01
1.191590949892997742e-01
1.525469683110713959e-02
-1.654430478811264038e-02
3.383640199899673462e-02
-6.435479223728179932e-02
-3.578715771436691284e-02
-9.316564351320266724e-02
1.247158199548721313e-01
-2.055525183677673340e-01
1.868745684623718262e-01
1.806784123182296753e-01
5.052556097507476807e-02
1.588419824838638306e-01
1.111327037215232849e-01
3.885382413864135742e-02
-1.337554864585399628e-02
-6.718377768993377686e-02
-2.484312951564788818e-01
-1.444895006716251373e-02
5.086229369044303894e-02
-8.191340416669845581e-02
4.464763402938842773e-02
7.444825489073991776e-03
