-1.261665970087051392e-01
7.718667387962341309e-02
3.956326469779014587e-02
4.287755489349365234e-02
-6.086342781782150269e-02
-7.698836922645568848e-02
-2.464382536709308624e-02
-1.285400390625000000e-01
1.343688070774078369e-01
-5.792045593261718750e-02
2.544722259044647217e-01
-7.805145531892776489e-02
-2.014824748039245605e-01
-1.247382462024688721e-01
-2.026953175663948059e-02
1.835842132568359375e-01
-1.666207909584045410e-01
-1.349474638700485229e-01
2.282376401126384735e-03
2.405393309891223907e-02
8.648928254842758179e-02
1.625185250304639339e-03
1.640732772648334503e-02
5.712084844708442688e-02
-4.693071171641349792e-02
-3.993018865585327148e-01
-1.462545990943908691e-01
-4.978260397911071777e-02
2.403895556926727295e-02
-8.397197723388671875e-02
-6.404744833707809448e-02
8.631035685539245605e-02
-1.930341720581054688e-01
-6.852637231349945068e-02
2.305470034480094910e-02
1.458780467510223389e-01
-4.570185020565986633e-02
-2.988936007022857666e-02
1.297981142997741699e-01
-4.487567767500877380e-02
-1.144634708762168884e-01
-5.357436835765838623e-02
9.669385850429534912e-02
2.890262305736541748e-01
1.696562618017196655e-01
8.452740311622619629e-02
4.437568783760070801e-02
-7.273263484239578247e-02
9.545335546135902405e-03
-1.477019786834716797e-01
-1.594532281160354614e-02
1.131886765360832214e-01
1.029553860425949097e-01
9.527377784252166748e-02
-1.499175652861595154e-02
-1.957918554544448853e-01
1.224997173994779587e-02
3.993188589811325073e-02
-1.478560566902160645e-01
1.973578520119190216e-02
5.118070170283317566e-02
-1.185538694262504578e-01
-6.839795410633087158e-02
-1.373830437660217285e-02
2.932404279708862305e-01
3.545353189110755920e-02
-9.370504319667816162e-02
-1.419096440076828003e-01
1.546809524297714233e-01
-1.385028809309005737e-01
-2.877192571759223938e-02
6.632702425122261047e-03
-1.732167750597000122e-01
-1.971103250980377197e-01
-3.165402710437774658e-01
1.968511939048767090e-02
3.890140354633331299e-01
2.344647422432899475e-02
-1.556176841259002686e-01
1.014439538121223450e-01
-3.905096650123596191e-02
2.735204622149467468e-02
7.523140311241149902e-02
7.363066822290420532e-02
-2.314971387386322021e-02
3.597608581185340881e-02
-2.159069627523422241e-01
6.177942454814910889e-02
1.720860600471496582e-01
-1.030840128660202026e-01
6.084676831960678101e-03
1.012361496686935425e-01
-1.976764947175979614e-02
4.826028272509574890e-02
5.895030498504638672e-02
3.597445413470268250e-02
-9.838061407208442688e-03
6.127270311117172241e-02
-1.661458909511566162e-01
7.781432010233402252e-03
2.931163087487220764e-02
-7.362698018550872803e-02
-2.400288358330726624e-02
5.436200648546218872e-02
-1.052857264876365662e-01
8.446681499481201172e-02
8.043596148490905762e-02
-8.956365287303924561e-03
-3.653736785054206848e-02
-2.310054004192352295e-02
-1.892245262861251831e-01
-7.447461783885955811e-02
1.236551702022552490e-01
-2.726204991340637207e-01
2.219337821006774902e-01
1.871854215860366821e-01
2.001517638564109802e-02
1.987609416246414185e-01
3.910167887806892395e-02
1.676714420318603516e-01
-4.417610913515090942e-02
-2.612188458442687988e-02
-1.458037793636322021e-01
-1.486017554998397827e-02
5.433806404471397400e-02
4.150265827775001526e-02
4.707191139459609985e-02
3.659972921013832092e-02
