-1.255948841571807861e-01
6.539248675107955933e-02
3.126195073127746582e-02
5.084818229079246521e-02
-5.863070860505104065e-02
-7.377403974533081055e-02
-4.293187707662582397e-02
-1.266725361347198486e-01
1.488627195358276367e-01
-7.849632203578948975e-02
2.787255644798278809e-01
-6.846433877944946289e-02
-2.211855351924896240e-01
-1.637610942125320435e-01
1.933758705854415894e-02
1.891774386167526245e-01
-1.715509295463562012e-01
-1.623229235410690308e-01
-2.513952925801277161e-02
3.985448740422725677e-03
6.943690031766891479e-02
-2.839510142803192139e-02
2.349691651761531830e-02
4.528160393238067627e-02
-3.634428232908248901e-02
-4.317878484725952148e-01
-1.239154636859893799e-01
-4.125494882464408875e-02
4.790569469332695007e-02
-9.467119723558425903e-02
-8.930156379938125610e-02
7.187255471944808960e-02
-1.941539198160171509e-01
-9.283088892698287964e-02
6.151599809527397156e-04
1.236431971192359924e-01
-4.659339413046836853e-02
-5.007667094469070435e-02
1.463553309440612793e-01
-5.904928594827651978e-02
-1.637111604213714600e-01
-4.606892541050910950e-02
6.363768130540847778e-02
2.697532773017883301e-01
1.903139948844909668e-01
5.392238497734069824e-02
4.612153023481369019e-02
-8.915293216705322266e-02
1.616020128130912781e-02
-1.827461421489715576e-01
-2.937875501811504364e-02
1.388930678367614746e-01
1.055175364017486572e-01
6.002194434404373169e-02
-2.164719626307487488e-02
-1.507129967212677002e-01
-1.022981386631727219e-02
4.609795659780502319e-02
-1.414692103862762451e-01
-8.006485179066658020e-03
6.458370387554168701e-02
-1.179791688919067383e-01
-7.625876367092132568e-02
-3.631477802991867065e-02
2.690168917179107666e-01
4.194170981645584106e-02
-9.044150263071060181e-02
-1.560117602348327637e-01
1.248247250914573669e-01
-1.352085769176483154e-01
-4.196254909038543701e-02
3.395860642194747925e-02
-1.557400673627853394e-01
-2.164017260074615479e-01
-3.366136252880096436e-01
1.600862294435501099e-02
4.213213026523590088e-01
3.879054449498653412e-03
-1.539963781833648682e-01
1.033820509910583496e-01
-6.689722836017608643e-02
-3.002608660608530045e-03
8.306089043617248535e-02
6.337942928075790405e-02
-2.753200754523277283e-02
1.823898963630199432e-02
-2.170627713203430176e-01
6.903830170631408691e-02
1.970673799514770508e-01
-9.950578212738037109e-02
5.290718283504247665e-03
9.667994827032089233e-02
-4.977924749255180359e-03
6.814683973789215088e-02
6.203620135784149170e-02
8.209939301013946533e-02
7.087481208145618439e-03
6.490805000066757202e-02
-1.648068875074386597e-01
1.178938895463943481e-02
5.736861005425453186e-02
-6.658706814050674438e-02
-1.854743063449859619e-02
3.135182708501815796e-02
-1.094458773732185364e-01
9.379089623689651489e-02
8.702324330806732178e-02
2.206367440521717072e-03
1.413042843341827393e-02
-4.013723507523536682e-02
-1.642662435770034790e-01
-8.014451712369918823e-02
1.163177937269210815e-01
-2.805630266666412354e-01
1.911348402500152588e-01
2.081310153007507324e-01
5.115683004260063171e-02
1.898686140775680542e-01
4.463665932416915894e-02
1.359900683164596558e-01
-5.668773874640464783e-02
-4.176139459013938904e-02
-1.696147322654724121e-01
-1.366980187594890594e-02
4.979140311479568481e-02
5.038156360387802124e-02
4.054491221904754639e-02
3.255150839686393738e-02
