-3.684211149811744690e-02
9.101013839244842529e-02
3.887901082634925842e-02
-3.893559426069259644e-02
-1.290999054908752441e-01
4.102783743292093277e-03
-7.424207776784896851e-02
-7.694632560014724731e-02
1.337784230709075928e-01
-1.121210008859634399e-01
2.933472096920013428e-01
-4.300238937139511108e-02
-2.901123464107513428e-01
-1.128777563571929932e-01
6.097757816314697266e-02
1.816051751375198364e-01
-1.303099691867828369e-01
-1.658274233341217041e-01
-5.196511745452880859e-02
2.388631924986839294e-02
1.364346221089363098e-02
-1.100594270974397659e-02
4.536359757184982300e-02
6.662974506616592407e-02
-1.226030811667442322e-01
-4.204137027263641357e-01
-5.345509201288223267e-02
2.190943434834480286e-02
-4.082749783992767334e-02
-4.187633469700813293e-02
-1.039614602923393250e-01
9.142228960990905762e-02
-2.373653352260589600e-01
-6.650362163782119751e-02
6.463424116373062134e-02
2.063198685646057129e-01
-6.822585314512252808e-02
-6.242553889751434326e-02
1.902004331350326538e-01
7.875466719269752502e-03
-2.516376078128814697e-01
-1.889805495738983154e-02
8.620546013116836548e-02
2.407969981431961060e-01
2.057978957891464233e-01
2.704854495823383331e-02
2.701161243021488190e-02
-8.778537064790725708e-02
1.097998172044754028e-01
-2.506750822067260742e-01
1.202309280633926392e-01
1.648811697959899902e-01
6.001093983650207520e-02
9.090524166822433472e-02
2.094190940260887146e-02
-1.491891145706176758e-01
-2.409401163458824158e-02
1.741382479667663574e-01
-1.296842098236083984e-01
-7.869103550910949707e-02
7.436003535985946655e-02
-6.590601801872253418e-02
-1.117593608796596527e-02
-1.634891480207443237e-01
2.910439074039459229e-01
1.418651193380355835e-01
-1.188796609640121460e-01
-1.970209628343582153e-01
1.306524276733398438e-01
-1.411396563053131104e-01
-1.290278285741806030e-01
6.565981358289718628e-02
-1.503198742866516113e-01
-1.385179907083511353e-01
-3.789160847663879395e-01
5.536109209060668945e-02
3.649716079235076904e-01
9.669312089681625366e-02
-1.861624419689178467e-01
1.049799565225839615e-02
-2.199188061058521271e-02
-4.297512769699096680e-02
6.855434924364089966e-02
1.104562357068061829e-01
3.417627513408660889e-02
3.659265488386154175e-02
-1.222882270812988281e-01
1.438253279775381088e-02
2.717815637588500977e-01
-3.455384075641632080e-02
-2.378989383578300476e-02
1.874853521585464478e-01
2.194251120090484619e-02
8.629406988620758057e-02
9.299935400485992432e-02
5.900847539305686951e-02
-6.297400593757629395e-02
4.803090356290340424e-03
-2.619244158267974854e-01
4.190449602901935577e-03
-6.373424828052520752e-02
-5.011387541890144348e-02
-3.743290156126022339e-02
1.157202422618865967e-01
-1.577792316675186157e-01
1.321541368961334229e-01
2.312120608985424042e-02
-7.561748847365379333e-03
1.631579548120498657e-02
3.370641265064477921e-03
-1.184448823332786560e-01
-1.174983158707618713e-01
8.850221335887908936e-02
-2.973058521747589111e-01
1.968962401151657104e-01
1.184772700071334839e-01
1.069968268275260925e-01
1.439823210239410400e-01
9.908881038427352905e-02
1.282294839620590210e-01
-2.025260962545871735e-02
-4.512092471122741699e-02
-1.887996941804885864e-01
-6.495581567287445068e-02
7.238619774580001831e-02
1.296942867338657379e-02
8.165948092937469482e-02
5.388821288943290710e-02
