-8.758890442550182343e-03
7.456675916910171509e-02
3.357851877808570862e-02
-3.306488692760467529e-02
-9.707332402467727661e-02
3.285990655422210693e-02
-7.990573346614837646e-02
-7.059875875711441040e-02
1.847313344478607178e-01
-9.833296388387680054e-02
2.740533053874969482e-01
-1.337762363255023956e-02
-2.124449312686920166e-01
-1.336079835891723633e-01
3.388828039169311523e-02
1.715903729200363159e-01
-1.407097131013870239e-01
-1.754874140024185181e-01
-1.334589067846536636e-02
5.313962697982788086e-02
3.205686807632446289e-02
-7.170298602432012558e-03
2.165811322629451752e-02
5.855078995227813721e-02
-2.040966898202896118e-01
-3.660577833652496338e-01
-4.448897391557693481e-02
-1.134170219302177429e-02
-4.509092122316360474e-02
-3.013420104980468750e-02
-1.038765758275985718e-01
9.903202950954437256e-02
-2.204492986202239990e-01
-3.606593608856201172e-02
5.528738349676132202e-02
2.060131728649139404e-01
-2.102713659405708313e-02
-8.522436767816543579e-02
1.794798821210861206e-01
-4.646340385079383850e-04
-2.957279682159423828e-01
1.562895812094211578e-02
6.181935593485832214e-02
1.944762766361236572e-01
2.101396322250366211e-01
9.561339393258094788e-03
9.042525663971900940e-03
-8.447763323783874512e-02
1.342946887016296387e-01
-2.281288653612136841e-01
8.906000107526779175e-02
1.482580304145812988e-01
7.113894820213317871e-02
5.133498460054397583e-02
1.674285158514976501e-02
-1.589214205741882324e-01
-4.134266823530197144e-02
1.484366059303283691e-01
-1.283220499753952026e-01
-1.167605221271514893e-01
1.197059266269207001e-02
-6.218043342232704163e-02
7.936120964586734772e-03
-1.525163650512695312e-01
2.389235049486160278e-01
1.403809934854507446e-01
-9.428046643733978271e-02
-2.124434262514114380e-01
1.554712355136871338e-01
-1.382867842912673950e-01
-1.209450140595436096e-01
9.407370537519454956e-02
-1.192178130149841309e-01
-1.636356562376022339e-01
-3.468842804431915283e-01
5.007998645305633545e-02
3.148752748966217041e-01
1.051660627126693726e-01
-2.264863103628158569e-01
5.745934695005416870e-02
-1.224419381469488144e-02
-1.656459830701351166e-02
6.268657743930816650e-02
1.168042421340942383e-01
7.053543627262115479e-02
5.418578162789344788e-02
-1.396848708391189575e-01
-5.180344730615615845e-02
2.954927980899810791e-01
-5.133107304573059082e-02
-1.828443724662065506e-03
1.881423145532608032e-01
9.065601974725723267e-03
6.933084130287170410e-02
7.209867984056472778e-02
3.280279040336608887e-02
-6.857430934906005859e-02
6.511794775724411011e-02
-2.285333871841430664e-01
-3.638586029410362244e-03
-1.771286129951477051e-03
1.877944916486740112e-02
-2.963264100253582001e-02
1.340963989496231079e-01
-1.665544509887695312e-01
1.215348169207572937e-01
9.998971596360206604e-03
-2.475028857588768005e-02
4.592867940664291382e-02
-7.661806885153055191e-03
-9.053633362054824829e-02
-1.100795045495033264e-01
1.077631339430809021e-01
-2.929969727993011475e-01
1.870064735412597656e-01
7.644441723823547363e-02
7.435867935419082642e-02
1.613806784152984619e-01
1.220237761735916138e-01
1.320495009422302246e-01
-1.761756464838981628e-02
-3.863894194364547729e-02
-2.122279256582260132e-01
-6.897275894880294800e-02
8.361296355724334717e-02
-3.485444188117980957e-02
7.640237361192703247e-02
4.452940821647644043e-02
