-1.523395627737045288e-01
1.578928083181381226e-01
5.612540245056152344e-02
-4.254962503910064697e-02
-1.100020259618759155e-01
-1.081162020564079285e-01
2.077963203191757202e-02
-8.091241866350173950e-02
1.308739781379699707e-01
-5.857985001057386398e-03
2.745359838008880615e-01
-4.473445191979408264e-02
-1.146318838000297546e-01
-2.390301674604415894e-01
1.496350299566984177e-02
1.094574779272079468e-01
-2.346128523349761963e-01
-1.669002026319503784e-01
2.194553986191749573e-02
-8.996535837650299072e-02
7.161199301481246948e-02
-7.732664048671722412e-02
1.245641894638538361e-02
4.378157109022140503e-02
-6.516067683696746826e-02
-3.613300323486328125e-01
-1.018515378236770630e-01
-9.992005676031112671e-02
1.543514728546142578e-01
-6.942070275545120239e-02
-1.450108550488948822e-02
2.768929861485958099e-02
-2.170519828796386719e-01
-1.163461729884147644e-01
-6.017704308032989502e-02
9.355597198009490967e-02
2.453985251486301422e-02
-8.666300773620605469e-02
1.248812451958656311e-01
-4.840406775474548340e-02
-1.133607923984527588e-01
-5.390148237347602844e-02
4.843204095959663391e-02
2.672079801559448242e-01
2.249056398868560791e-01
7.824633270502090454e-03
3.090582415461540222e-02
9.137938730418682098e-03
8.730541169643402100e-02
-2.228197008371353149e-01
4.853705316781997681e-02
1.381309032440185547e-01
9.795954078435897827e-02
1.942915469408035278e-02
4.477601125836372375e-02
-1.402113139629364014e-01
-1.477692462503910065e-02
1.329586058855056763e-01
-2.216498702764511108e-01
4.506113752722740173e-02
-3.563523665070533752e-02
-4.569539427757263184e-02
-6.581279635429382324e-02
-2.998710051178932190e-02
2.554582655429840088e-01
1.970618665218353271e-01
-5.195487663149833679e-02
-1.750683337450027466e-01
2.081486880779266357e-01
-1.382411271333694458e-01
-4.595354944467544556e-02
7.270256429910659790e-02
-1.016261652112007141e-01
-1.192178800702095032e-01
-2.835610210895538330e-01
8.857852965593338013e-02
3.624580204486846924e-01
6.825457513332366943e-02
-1.620209813117980957e-01
8.139011450111865997e-03
-1.234482899308204651e-01
-1.225789543241262436e-02
6.989166140556335449e-02
3.925304487347602844e-02
-9.652338922023773193e-02
-5.255257710814476013e-04
-2.444037795066833496e-01
8.371404372155666351e-03
1.387849301099777222e-01
-2.730856463313102722e-02
-3.982182592153549194e-02
2.127823531627655029e-01
-9.885040111839771271e-03
3.519066795706748962e-02
4.319919645786285400e-02
7.727384567260742188e-02
-6.062032282352447510e-02
7.612031698226928711e-02
-1.243124604225158691e-01
-5.920592322945594788e-02
1.741683334112167358e-01
-1.224331632256507874e-01
-5.935863777995109558e-02
1.300516724586486816e-01
-1.588127017021179199e-01
3.394901286810636520e-03
1.065166108310222626e-02
3.269273787736892700e-02
-4.493580013513565063e-02
-1.083638593554496765e-01
-3.479483723640441895e-02
-3.530263528227806091e-02
1.209979355335235596e-01
-2.257129848003387451e-01
2.163751274347305298e-01
1.997807472944259644e-01
-3.939323499798774719e-02
1.768477559089660645e-01
5.506370589137077332e-02
2.687035314738750458e-02
1.657449454069137573e-02
-1.763195991516113281e-01
-8.034995198249816895e-02
9.570999071002006531e-03
-1.362286135554313660e-02
-3.171952441334724426e-02
-3.649535775184631348e-02
5.861718952655792236e-02
