-7.330158352851867676e-02
2.540913969278335571e-02
4.925016313791275024e-02
-5.864693969488143921e-02
-5.187078192830085754e-02
-3.426925092935562134e-02
-5.354508012533187866e-02
-1.264132857322692871e-01
1.861833035945892334e-01
-1.456900835037231445e-01
2.482901215553283691e-01
-3.625178709626197815e-02
-1.561822891235351562e-01
-1.462685912847518921e-01
3.838507831096649170e-02
1.925873607397079468e-01
-1.980497390031814575e-01
-1.479073464870452881e-01
3.998307511210441589e-03
-6.382823921740055084e-03
6.112987920641899109e-02
-6.551857292652130127e-02
1.875455118715763092e-02
2.957183122634887695e-02
-1.009771972894668579e-01
-4.175520241260528564e-01
-1.137140914797782898e-01
-9.876480698585510254e-02
5.862987786531448364e-02
1.223380304872989655e-02
-8.148187398910522461e-02
9.328711032867431641e-02
-1.826132535934448242e-01
-5.060398206114768982e-02
2.923804707825183868e-02
4.984259232878684998e-02
3.634486719965934753e-02
-4.491203278303146362e-02
1.323283165693283081e-01
-5.382178723812103271e-02
-2.392610609531402588e-01
-1.831761747598648071e-02
1.164450198411941528e-01
1.639647334814071655e-01
2.308159172534942627e-01
6.225650012493133545e-02
2.019654773175716400e-02
-1.206832453608512878e-01
9.092862159013748169e-02
-2.319202274084091187e-01
3.724129125475883484e-02
8.329513669013977051e-02
9.640032052993774414e-02
6.305177509784698486e-02
2.543779090046882629e-02
-2.209462523460388184e-01
-3.588141500949859619e-02
8.184567093849182129e-02
-2.231407314538955688e-01
-3.996628802269697189e-03
2.376214135438203812e-03
-4.405837878584861755e-02
-2.859913557767868042e-02
-7.967731356620788574e-02
3.320862054824829102e-01
1.595880538225173950e-01
-1.604335904121398926e-01
-1.718129217624664307e-01
1.698382943868637085e-01
-1.150506883859634399e-01
3.532980754971504211e-02
5.833907425403594971e-02
-1.804440766572952271e-01
-1.919412165880203247e-01
-3.078556954860687256e-01
4.184529930353164673e-02
3.248235583305358887e-01
9.675641357898712158e-02
-1.323332637548446655e-01
3.862193599343299866e-02
-1.624401062726974487e-01
1.114612631499767303e-02
2.735477685928344727e-02
6.800262629985809326e-02
1.323245838284492493e-02
-5.350823327898979187e-02
-5.475795269012451172e-02
-2.932642586529254913e-02
1.810804754495620728e-01
-8.642315864562988281e-02
1.760752871632575989e-02
2.017266452312469482e-01
-7.334242016077041626e-02
5.095831304788589478e-02
-7.270743697881698608e-02
7.814336568117141724e-02
-1.250080019235610962e-01
5.041285604238510132e-02
-1.782502382993698120e-01
-5.237125605344772339e-02
-3.174274414777755737e-02
7.391345687210559845e-03
5.782884359359741211e-02
1.554260104894638062e-01
-2.123160213232040405e-01
5.374405160546302795e-02
-8.313465863466262817e-03
-1.611455716192722321e-02
5.088728666305541992e-02
1.501793623901903629e-03
-6.859437376260757446e-02
-1.214770898222923279e-01
7.479368150234222412e-02
-2.728723883628845215e-01
2.179172337055206299e-01
1.847947686910629272e-01
1.118346005678176880e-01
1.860604733228683472e-01
5.853573232889175415e-02
8.100306242704391479e-02
-9.407935664057731628e-03
-7.339848577976226807e-02
-1.769492626190185547e-01
6.171518191695213318e-02
8.351834863424301147e-02
-3.499237820506095886e-02
-1.038178987801074982e-02
2.563391067087650299e-02
